{
    "filter.era": {
        "choice": true,
        "persist": false,
        "default": "both",
        "values": [
            "both",
            "child",
            "adult"
        ],
        "images": [
            "/images/icons/era_both.svg",
            "/images/icons/era_child.svg",
            "/images/icons/era_adult.svg"
        ],
        "badge": [{
            "values": {
                "child": true,
                "adult": true
            },
            "image": "/images/icons/era_both.svg"
        },{
            "values": {
                "child": true
            },
            "image": "/images/icons/era_child.svg"
        },{
            "values": {
                "adult": true
            },
            "image": "/images/icons/era_adult.svg"
        },{
            "image": "/images/icons/era_none.svg"
        }]
    },
    "filter.era_apply": {
        "choice": true,
        "persist": true,
        "default": "loose",
        "values": [
            "loose",
            "force"
        ],
        "images": [
            "/images/icons/era_apply_loose.svg",
            "/images/icons/era_apply_force.svg"
        ],
        "badge": false
    },
    "filter.time": {
        "choice": false,
        "persist": false,
        "default": "both",
        "values": [
            "both",
            "day",
            "night"
        ],
        "images": [
            "/images/icons/time_always.svg",
            "/images/icons/time_day.svg",
            "/images/icons/time_night.svg"
        ],
        "badge": [{
            "values": {
                "day": true,
                "night": true
            },
            "image": "/images/icons/time_always.svg"
        },{
            "values": {
                "day": true
            },
            "image": "/images/icons/time_day.svg"
        },{
            "values": {
                "night": true
            },
            "image": "/images/icons/time_night.svg"
        },{
            "image": "/images/icons/time_never.svg"
        }]
    },
    "filter.chests": {
        "choice": true,
        "persist": true,
        "default": "true",
        "values": [
            "true",
            "false"
        ],
        "images": [
            "/images/icons/chest.svg",
            "/images/icons/chest_no.svg"
        ],
        "badge": false
    },
    "filter.skulltulas": {
        "choice": true,
        "persist": true,
        "default": "true",
        "values": [
            "true",
            "dungeons",
            "overworld",
            "false"
        ],
        "images": [
            "/images/icons/skulltula.svg",
            "/images/icons/skulltula_dungeons.svg",
            "/images/icons/skulltula_overworld.svg",
            "/images/icons/skulltula_no.svg"
        ],
        "badge": false
    },
    "filter.gossipstones": {
        "choice": true,
        "persist": true,
        "default": "false",
        "values": [
            "true",
            "false"
        ],
        "images": [
            "/images/icons/gossipstone.svg",
            "/images/icons/gossipstone_no.svg"
        ],
        "badge": false
    },
    "filter.show_done": {
        "choice": true,
        "persist": true,
        "default": "true",
        "values": [
            "true",
            "false"
        ],
        "images": [
            "/images/icons/opened_visible.svg",
            "/images/icons/opened_invisible.svg"
        ],
        "badge": false
    }
}