{
    "option.logic_rules": {
        "category": "options",
        "type": "choice",
        "default": "logic_rules_glitchless",
        "values": [
            "logic_rules_glitchless",
            "logic_rules_glitched"
        ]
    },
    "option.starting_age": {
        "category": "options",
        "type": "choice",
        "default": "child",
        "values": [
            "child",
            "adult"
        ]
    },
    "option.consider_buyable": {
        "category": "options",
        "type": "check",
        "default": false
    },
    "option.bombchu_logic": {
        "category": "options",
        "type": "check",
        "default": false
    },
    "option.skip_child_zelda": {
        "category": "options",
        "type": "check",
        "default": false
    },
    "option.skip_epona_race": {
        "category": "options",
        "type": "check",
        "default": false
    },
    "option.free_scarecrow": {
        "category": "options",
        "type": "check",
        "default": false
    },
    "option.keysanity_small": {
        "category": "options",
        "type": "check",
        "default": false
    },
    "option.track_keys": {
        "category": "options",
        "type": "check",
        "default": true
    },
    "option.track_bosskeys": {
        "category": "options",
        "type": "check",
        "default": true
    },
    "option.scrubsanity": {
        "category": "options",
        "type": "check",
        "default": false
    },
    "option.cowsanity": {
        "category": "options",
        "type": "check",
        "default": false
    },
    "option.shopsanity": {
        "category": "options",
        "type": "choice",
        "default": "off",
        "values": [
            "off",
            "0",
            "1",
            "2",
            "3",
            "4",
            "random"
        ]
    },
    "option.beansanity": {
        "category": "options",
        "type": "check",
        "default": false
    },
    "option.shuffleMediCarpet": {
        "category": "options",
        "type": "check",
        "default": false
    },
    "option.doors_open_forest": {
        "category": "options",
        "type": "choice",
        "default": "doors_open_forest_open",
        "values": [
            "doors_open_forest_closed",
            "doors_open_forest_deku",
            "doors_open_forest_open"
        ]
    },
    "option.doors_open_kakariko": {
        "category": "options",
        "type": "choice",
        "default": "doors_open_kakariko_closed",
        "values": [
            "doors_open_kakariko_closed",
            "doors_open_kakariko_zelda",
            "doors_open_kakariko_open"
        ]
    },
    "option.doors_open_temple": {
        "category": "options",
        "type": "check",
        "default": false
    },
    "option.doors_open_zora": {
        "category": "options",
        "type": "choice",
        "default": "doors_open_zora_closed",
        "values": [
            "doors_open_zora_closed",
            "doors_open_zora_adult",
            "doors_open_zora_both"
        ]
    },
    "option.gerudo_fortress_open": {
        "category": "options",
        "type": "choice",
        "default": "gerudo_fortress_open_default",
        "values": [
            "gerudo_fortress_open_default",
            "gerudo_fortress_open_one",
            "gerudo_fortress_open_open"
        ]
    },
    "option.trade_sequence_start_item": {
        "category": "options",
        "type": "choice",
        "default": 1,
        "values": {
            "1": "item.pocket_egg",
            "2": "item.pocket_cucco",
            "3": "item.pocket_cojiro",
            "4": "item.mushroom",
            "5": "item.medicine",
            "6": "item.saw",
            "7": "item.broken_sword",
            "8": "item.prescription",
            "9": "item.frog",
            "10": "item.eyedrops",
            "11": "item.claim"
        }
    },
    "option.big_poe_count": {
        "category": "options",
        "type": "number",
        "default": 10,
        "min": 1,
        "max": 10
    },
    "option.keysanity_small_old": {
        "category": "options",
        "type": "hidden",
        "default": "keysanity_small_ignore",
        "values": [
            "keysanity_small_ignore",
            "keysanity_small_track",
            "keysanity_small_keysanity"
        ]
    },
    "option.keysanity_boss_old": {
        "category": "options",
        "type": "hidden",
        "default": "keysanity_boss_ignore",
        "values": [
            "keysanity_boss_ignore",
            "keysanity_boss_track",
            "keysanity_boss_keysanity"
        ]
    },
    "option.skullsanity": {
        "category": "options",
        "type": "hidden",
        "old_type": "check",
        "default": false
    },
    "option.sun_song_skulltuta": {
        "category": "options",
        "type": "check",
        "default": false
    },
    "option.shuffle_dungeons": {
        "category": "entrance_randomizer",
        "type": "check",
        "default": false
    },
    "option.entrance_shuffle_interior": {
        "category": "entrance_randomizer",
        "type": "choice",
        "default": "entrance_shuffle_off",
        "values": [
            "entrance_shuffle_off",
            "entrance_shuffle_simple",
            "entrance_shuffle_all"
        ]
    },
    "option.shuffle_grottos": {
        "category": "entrance_randomizer",
        "type": "check",
        "default": false
    },
    "option.shuffle_overworld": {
        "category": "entrance_randomizer",
        "type": "check",
        "default": false
    },
    "option.shuffle_owls": {
        "category": "entrance_randomizer",
        "type": "check",
        "default": false
    },
    "option.shuffle_warps": {
        "category": "entrance_randomizer",
        "type": "check",
        "default": false
    },
    "option.shuffle_spawns": {
        "category": "entrance_randomizer",
        "type": "check",
        "default": false
    },
    "option.mixed_entrance_pool": {
        "category": "entrance_randomizer",
        "type": "check",
        "default": false
    },
    "option.light_arrow_cutscene": {
        "category": "lacsAndGanon",
        "type": "choice",
        "default": "light_arrow_cutscene_vanilla",
        "values": [
            "light_arrow_cutscene_vanilla",
            "light_arrow_cutscene_stones",
            "light_arrow_cutscene_medallions",
            "light_arrow_cutscene_dungeons",
            "light_arrow_cutscene_skulltulas"
        ]
    },
    "option.lacs_skulltulas": {
        "category": "lacsAndGanon",
        "type": "number",
        "default": 100,
        "visible": {
            "type": "state",
            "el": "option.light_arrow_cutscene",
            "value": "light_arrow_cutscene_skulltulas"
        },
        "min": 0,
        "max": 100
    },
    "option.stone_count_lacs": {
        "category": "lacsAndGanon",
        "type": "number",
        "default": 3,
        "visible": {
            "type": "state",
            "el": "option.light_arrow_cutscene",
            "value": "light_arrow_cutscene_stones"
        },
        "min": 1,
        "max": 3
    },
    "option.medallion_count_lacs": {
        "category": "lacsAndGanon",
        "type": "number",
        "default": 6,
        "visible": {
            "type": "state",
            "el": "option.light_arrow_cutscene",
            "value": "light_arrow_cutscene_medallions"
        },
        "min": 1,
        "max": 6
    },
    "option.dungeon_count_lacs": {
        "category": "lacsAndGanon",
        "type": "number",
        "default": 9,
        "visible": {
            "type": "state",
            "el": "option.light_arrow_cutscene",
            "value": "light_arrow_cutscene_dungeons"
        },
        "min": 1,
        "max": 9
    },
    "option.ganon_castle_open": {
        "category": "lacsAndGanon",
        "type": "choice",
        "default": "ganon_castle_open_default",
        "values": [
            "ganon_castle_open_dungeon",
            "ganon_castle_open_medallion",
            "ganon_castle_open_stones",
            "ganon_castle_open_skulltulas",
            "ganon_castle_open_triforce",
            "ganon_castle_open_default",
            "ganon_castle_open_open"
        ]
    },
    "option.ganon_castle_skulltulas": {
        "category": "lacsAndGanon",
        "type": "number",
        "default": 100,
        "visible": {
            "type": "state",
            "el": "option.ganon_castle_open",
            "value": "ganon_castle_open_skulltulas"
        },
        "min": 0,
        "max": 100
    },
    "option.stone_count_bridge": {
        "category": "lacsAndGanon",
        "type": "number",
        "default": 3,
        "visible": {
            "type": "state",
            "el": "option.ganon_castle_open",
            "value": "ganon_castle_open_stones"
        },
        "min": 1,
        "max": 3
    },
    "option.medallion_count_bridge": {
        "category": "lacsAndGanon",
        "type": "number",
        "default": 6,
        "visible": {
            "type": "state",
            "el": "option.ganon_castle_open",
            "value": "ganon_castle_open_medallion"
        },
        "min": 1,
        "max": 6
    },
    "option.dungeon_count_bridge": {
        "category": "lacsAndGanon",
        "type": "number",
        "default": 9,
        "visible": {
            "type": "state",
            "el": "option.ganon_castle_open",
            "value": "ganon_castle_open_dungeon"
        },
        "min": 1,
        "max": 9
    },
    "option.ganon_boss_door_open": {
        "category": "lacsAndGanon",
        "type": "check",
        "default": false
    },
    "trials": {
        "category": "lacsAndGanon",
        "type": "list",
        "values": [
            "option.forest_trial",
            "option.water_trial",
            "option.shadow_trial",
            "option.fire_trial",
            "option.light_trial",
            "option.spirit_trial"
        ],
        "default": [
            "option.forest_trial",
            "option.water_trial",
            "option.shadow_trial",
            "option.fire_trial",
            "option.light_trial",
            "option.spirit_trial"
        ]
    },
    "skip.lens_required": {
        "category": "skips",
        "type": "choice",
        "default": "lens_required_default",
        "values": [
            "lens_required_never",
            "lens_required_wasteland",
            "lens_required_default"
        ]
    },
    "overworld_skips": {
        "category": "skips",
        "type": "list",
        "values": [
            "skip.grottos_without_agony",
            "skip.rusted_switches",
            "skip.fewer_tunic_requirements",
            "skip.visible_collisions",
            "skip.adult_kokiri_gs",
            "skip.lost_woods_bridge",
            "skip.mido_backflip",
            "skip.lost_woods_gs_bean",
            "skip.lab_wall_gs",
            "skip.water_hookshot_entry",
            "skip.lab_diving",
            "skip.valley_crate_hovers",
            "skip.gerudo_kitchen",
            "skip.wasteland_crossing",
            "skip.lens_wasteland",
            "skip.reverse_wasteland",
            "skip.colossus_gs",
            "skip.kakariko_tower_gs",
            "skip.kakariko_rooftop_gs",
            "skip.man_on_roof",
            "skip.windmill_poh",
            "skip.graveyard_poh",
            "skip.child_dampe_race_poh",
            "skip.shadow_fire_arrow_entry",
            "skip.dmt_climb_hovers",
            "skip.dmt_bombable",
            "skip.dmt_soil_gs",
            "skip.trail_gs_lower_hookshot",
            "skip.trail_gs_lower_bean",
            "skip.trail_gs_upper",
            "skip.biggoron_bolero",
            "skip.trail_gs_lower_hovers",
            "skip.link_goron_dins",
            "skip.goron_city_leftmost",
            "skip.goron_city_pot_with_strength",
            "skip.goron_city_pot",
            "skip.child_rolling_with_strength",
            "skip.goron_grotto",
            "skip.crater_upper_to_lower",
            "skip.crater_bean_poh_with_hovers",
            "skip.zora_river_lower",
            "skip.zora_river_upper",
            "skip.zora_with_hover",
            "skip.zora_with_cucco",
            "skip.domain_gs",
            "skip.castle_storms_gs"
        ],
        "default": []
    },
    "child_dungeons": {
        "category": "skips",
        "type": "list",
        "values": [
            "skip.lens_botw",
            "skip.child_deadhand",
            "skip.botw_basement",
            "skip.botw_cage_gs",
            "skip.botw_mq_dead_hand_key",
            "skip.botw_mq_pits",
            "skip.deku_basement_gs",
            "skip.deku_b1_webs_with_bow",
            "skip.deku_b1_skip",
            "skip.deku_mq_compass_gs",
            "skip.deku_mq_log",
            "skip.dc_vines_gs",
            "skip.dc_scrub_room",
            "skip.dc_scarecrow_gs",
            "skip.dc_staircase",
            "skip.dc_slingshot_skip",
            "skip.dc_jump",
            "skip.dc_mq_child_bombs",
            "skip.dc_mq_eyes",
            "skip.dc_mq_child_back",
            "skip.jabu_scrub_jump_dive",
            "skip.jabu_boss_gs_adult",
            "skip.jabu_mq_sot_gs",
            "skip.lens_jabu_mq"
        ],
        "default": []
    },
    "mini_adult_dungeons": {
        "category": "skips",
        "type": "list",
        "values": [
            "skip.ice_block_gs",
            "skip.ice_mq_scarecrow",
            "skip.ice_mq_red_ice_gs",
            "skip.gtg_without_hookshot",
            "skip.lens_gtg",
            "skip.gtg_fake_wall",
            "skip.lens_gtg_mq",
            "skip.gtg_mq_without_hookshot",
            "skip.gtg_mq_with_hookshot",
            "skip.lens_castle",
            "skip.spirit_trial_hookshot",
            "skip.lens_castle_mq",
            "skip.shadow_trial_mq",
            "skip.fire_trial_mq",
            "skip.light_trial_mq"
        ],
        "default": []
    },
    "area.temple_forest": {
        "category": "skips",
        "type": "list",
        "values": [
            "skip.forest_outdoors_ledge",
            "skip.forest_outdoor_east_gs",
            "skip.forest_vines",
            "skip.forest_scarecrow",
            "skip.forest_outside_backdoor",
            "skip.forest_mq_block_puzzle",
            "skip.forest_mq_hallway_switch",
            "skip.forest_well_swim",
            "skip.forest_mq_hallway_switch_jumpslash",
            "skip.forest_mq_hallway_switch_hookshot",
            "skip.forest_door_frame",
            "skip.forest_first_gs"
        ],
        "default": []
    },
    "area.temple_fire": {
        "category": "skips",
        "type": "list",
        "values": [
            "skip.fire_boss_door_jump",
            "skip.fire_song_of_time",
            "skip.fire_strength",
            "skip.fire_scarecrow",
            "skip.fire_flame_maze",
            "skip.fire_mq_near_boss",
            "skip.fire_mq_bk_chest",
            "skip.fire_mq_bombable_chest",
            "skip.fire_mq_climb",
            "skip.fire_mq_maze_side_room",
            "skip.fire_mq_blocked_chest",
            "skip.fire_mq_maze_hovers",
            "skip.fire_mq_maze_jump",
            "skip.fire_mq_above_maze_gs",
            "skip.fire_mq_flame_maze"
        ],
        "default": []
    },
    "area.temple_water": {
        "category": "skips",
        "type": "list",
        "values": [
            "skip.water_temple_torch_longshot",
            "skip.water_central_bow",
            "skip.water_cracked_wall_nothing",
            "skip.water_cracked_wall_hovers",
            "skip.water_boss_key_region",
            "skip.water_dragon_bombchu",
            "skip.water_dragon_jump_dive",
            "skip.water_bk_jump_dive",
            "skip.water_bk_chest",
            "skip.water_north_basement_ledge_jump",
            "skip.water_river_gs",
            "skip.water_falling_platform_gs",
            "skip.water_dragon_adult",
            "skip.water_dragon_child",
            "skip.water_central_gs_irons",
            "skip.water_falling_platform_gs_hookshot",
            "skip.water_mq_central_pillar",
            "skip.water_mq_locked_gs",
            "skip.water_central_gs_fw",
            "skip.water_falling_platform_gs_boomerang"
        ],
        "default": []
    },
    "area.temple_shadow": {
        "category": "skips",
        "type": "list",
        "values": [
            "skip.lens_shadow",
            "skip.shadow_umbrella",
            "skip.lens_shadow_back",
            "skip.shadow_freestand_key",
            "skip.shadow_statue",
            "skip.lens_shadow_mq",
            "skip.shadow_mq_gap",
            "skip.shadow_mq_huge_pit",
            "skip.lens_shadow_mq_back",
            "skip.shadow_mq_invisible_blades",
            "skip.shadow_umbrella_gs"
        ],
        "default": []
    },
    "area.temple_spirit": {
        "category": "skips",
        "type": "list",
        "values": [
            "skip.spirit_child_bombchu",
            "skip.spirit_lower_adult_switch",
            "skip.spirit_map_chest",
            "skip.spirit_sun_chest",
            "skip.spirit_lobby_gs",
            "skip.lens_spirit",
            "skip.spirit_wall",
            "skip.spirit_mq_frozen_eye",
            "skip.lens_spirit_mq",
            "skip.spirit_mq_lower_adult",
            "skip.spirit_mq_sun_block_gs",
            "skip.spirit_mq_sun_block_sot",
            "skip.spirit_lobby_jump"
        ],
        "default": []
    },
    "known_sequence_breaks": {
        "category": "skips",
        "type": "list",
        "values": [
            "skip.invisible_ocarina",
            "skip.invisible_ocarina_midair"
        ],
        "default": []
    }
}